<?xml version="1.0" encoding="UTF-8" standalone="no"?>
<!-- Created with Inkscape (http://www.inkscape.org/) -->

<svg
   xmlns:dc="http://purl.org/dc/elements/1.1/"
   xmlns:cc="http://creativecommons.org/ns#"
   xmlns:rdf="http://www.w3.org/1999/02/22-rdf-syntax-ns#"
   xmlns:svg="http://www.w3.org/2000/svg"
   xmlns="http://www.w3.org/2000/svg"
   xmlns:xlink="http://www.w3.org/1999/xlink"
   xmlns:sodipodi="http://sodipodi.sourceforge.net/DTD/sodipodi-0.dtd"
   xmlns:inkscape="http://www.inkscape.org/namespaces/inkscape"
   width="23.468857mm"
   height="23.234985mm"
   viewBox="0 0 23.468857 23.234985"
   version="1.1"
   id="svg8"
   inkscape:version="0.92.2 2405546, 2018-03-11"
   sodipodi:docname="pico.svg">
  <defs
     id="defs2">
    <linearGradient
       inkscape:collect="always"
       id="linearGradient936">
      <stop
         style="stop-color:#b71540;stop-opacity:1"
         offset="0"
         id="stop932" />
      <stop
         style="stop-color:#fa983a;stop-opacity:1"
         offset="1"
         id="stop934" />
    </linearGradient>
    <linearGradient
       inkscape:collect="always"
       xlink:href="#linearGradient936"
       id="linearGradient938"
       x1="127.08317"
       y1="146.04501"
       x2="142.88138"
       y2="129.20703"
       gradientUnits="userSpaceOnUse"
       gradientTransform="translate(0.04961626,0.04134533)" />
  </defs>
  <sodipodi:namedview
     id="base"
     pagecolor="#ffffff"
     bordercolor="#666666"
     borderopacity="1.0"
     inkscape:pageopacity="0.0"
     inkscape:pageshadow="2"
     inkscape:zoom="5.6568542"
     inkscape:cx="34.591961"
     inkscape:cy="36.710505"
     inkscape:document-units="mm"
     inkscape:current-layer="layer1"
     showgrid="false"
     fit-margin-top="0"
     fit-margin-left="0"
     fit-margin-right="0"
     fit-margin-bottom="0"
     inkscape:window-width="1920"
     inkscape:window-height="1052"
     inkscape:window-x="0"
     inkscape:window-y="28"
     inkscape:window-maximized="1" />
  <metadata
     id="metadata5">
    <rdf:RDF>
      <cc:Work
         rdf:about="">
        <dc:format>image/svg+xml</dc:format>
        <dc:type
           rdf:resource="http://purl.org/dc/dcmitype/StillImage" />
        <dc:title></dc:title>
      </cc:Work>
    </rdf:RDF>
  </metadata>
  <g
     inkscape:label="Calque 1"
     inkscape:groupmode="layer"
     id="layer1"
     transform="translate(-122.82973,-126.42404)">
    <rect
       ry="14.834063"
       rx="14.834063"
       y="127.07885"
       x="122.82973"
       height="22.580177"
       width="22.580177"
       id="rect971"
       style="opacity:1;fill:#9d1536;fill-opacity:1;stroke:none;stroke-width:5.41221476;stroke-linecap:square;stroke-linejoin:round;stroke-miterlimit:4;stroke-dasharray:none;stroke-opacity:1;paint-order:stroke markers fill" />
    <rect
       style="opacity:1;fill:url(#linearGradient938);fill-opacity:1;stroke:none;stroke-width:5.41221476;stroke-linecap:square;stroke-linejoin:round;stroke-miterlimit:4;stroke-dasharray:none;stroke-opacity:1;paint-order:stroke markers fill"
       id="rect896"
       width="22.580177"
       height="22.580177"
       x="123.71841"
       y="126.42404"
       rx="14.834063"
       ry="14.834063" />
    <text
       id="text961"
       y="139.79027"
       x="134.5914"
       style="font-style:normal;font-variant:normal;font-weight:normal;font-stretch:normal;font-size:13.88487339px;line-height:0.30000001;font-family:Montserrat;-inkscape-font-specification:Montserrat;letter-spacing:0px;word-spacing:0px;fill:#9d1536;fill-opacity:1;stroke:none;stroke-width:0.1;stroke-miterlimit:4;stroke-dasharray:none;stroke-opacity:1"
       xml:space="preserve"><tspan
         style="font-style:normal;font-variant:normal;font-weight:normal;font-stretch:normal;line-height:0.40000001;font-family:Troika;-inkscape-font-specification:Troika;text-align:center;text-anchor:middle;fill:#9d1536;fill-opacity:1;stroke:none;stroke-width:0.1;stroke-miterlimit:4;stroke-dasharray:none;stroke-opacity:1"
         y="139.79027"
         x="134.5914"
         id="tspan957"
         sodipodi:role="line">π</tspan><tspan
         id="tspan959"
         style="font-style:normal;font-variant:normal;font-weight:normal;font-stretch:normal;font-size:7.05555534px;line-height:0.40000001;font-family:Troika;-inkscape-font-specification:Troika;text-align:center;text-anchor:middle;fill:#9d1536;fill-opacity:1;stroke:none;stroke-width:0.1;stroke-miterlimit:4;stroke-dasharray:none;stroke-opacity:1"
         y="144.98451"
         x="134.5914"
         sodipodi:role="line">co</tspan></text>
    <text
       xml:space="preserve"
       style="font-style:normal;font-variant:normal;font-weight:normal;font-stretch:normal;font-size:13.88487339px;line-height:0.30000001;font-family:Montserrat;-inkscape-font-specification:Montserrat;letter-spacing:0px;word-spacing:0px;fill:#ffffff;fill-opacity:1;stroke:none;stroke-width:0.1;stroke-miterlimit:4;stroke-dasharray:none;stroke-opacity:1"
       x="135.41823"
       y="139.21149"
       id="text819"><tspan
         sodipodi:role="line"
         id="tspan817"
         x="135.41823"
         y="139.21149"
         style="font-style:normal;font-variant:normal;font-weight:normal;font-stretch:normal;line-height:0.40000001;font-family:Troika;-inkscape-font-specification:Troika;text-align:center;text-anchor:middle;fill:#ffffff;fill-opacity:1;stroke:none;stroke-width:0.1;stroke-miterlimit:4;stroke-dasharray:none;stroke-opacity:1">π</tspan><tspan
         sodipodi:role="line"
         x="135.41823"
         y="144.40573"
         style="font-style:normal;font-variant:normal;font-weight:normal;font-stretch:normal;font-size:7.05555534px;line-height:0.40000001;font-family:Troika;-inkscape-font-specification:Troika;text-align:center;text-anchor:middle;fill:#ffffff;fill-opacity:1;stroke:none;stroke-width:0.1;stroke-miterlimit:4;stroke-dasharray:none;stroke-opacity:1"
         id="tspan828">co</tspan></text>
  </g>
</svg>
